…
```r
Data %>%
  # Let's keep it simple and obvious. The min of z_ideo is "very liberal."
  # The max of z_ideo is "very conservative."
  # We should expect to see large magnitude differences.
  data_grid(.model = M1, z_ideo = c(min(z_ideo, na.rm=T), max(z_ideo, na.rm=T))) %>%
  # because we got 1000 sims, we need to repeat this 1000 times
  dplyr::slice(rep(row_number(), 1000)) ->  newdatM1

newdatM1
```

```
## # A tibble: 2,000 x 7
##    z_ideo  z_age female collegeed z_famincr z_pid7na state       
##     <dbl>  <dbl>  <dbl>     <dbl>     <dbl>    <dbl> <chr>       
##  1 -0.958 0.0518      1         0   0.00220   0.0254 Pennsylvania
##  2  0.879 0.0518      1         0   0.00220   0.0254 Pennsylvania
##  3 -0.958 0.0518      1         0   0.00220   0.0254 Pennsylvania
##  4  0.879 0.0518      1         0   0.00220   0.0254 Pennsylvania
##  5 -0.958 0.0518      1         0   0.00220   0.0254 Pennsylvania
##  6  0.879 0.0518      1         0   0.00220   0.0254 Pennsylvania
##  7 -0.958 0.0518      1         0   0.00220   0.0254 Pennsylvania
##  8  0.879 0.0518      1         0   0.00220   0.0254 Pennsylvania
##  9 -0.958 0.0518      1         0   0.00220   0.0254 Pennsylvania
## 10  0.879 0.0518      1         0   0.00220   0.0254 Pennsylvania
## # … with 1,990 more rows
```
Next, we're going to repeat our simulation data however many unique differences there are in the hypothetical data. In this case, there are only two differences in the hypothetical data (one person is very liberal and the other person is very conservative). So, we're going to repeat the simulation data twice and arrange it by the simulation number to make sure everything matches up nicely.


```r
simM1 %>%
  # repeat it twice because we have two values of z_ideo
  dplyr::slice(rep(row_number(), 2)) %>%
  # arrange by simulation number after we repeated the data twice
  arrange(sim) -> simM1

simM1
```

```
## # A tibble: 2,000 x 11
##      sim `1|2`  `2|3` `3|4` `4|5`    z_age  female collegeed z_famincr z_ideo z_pid7na
##    <int> <dbl>  <dbl> <dbl> <dbl>    <dbl>   <dbl>     <dbl>     <dbl>  <dbl>    <dbl>
##  1     1 -1.94 -0.286 0.659  1.69  0.0662  -0.0212    -0.567   -0.213    1.61    0.977
##  2     1 -1.94 -0.286 0.659  1.69  0.0662  -0.0212    -0.567   -0.213    1.61    0.977
##  3     2 -1.97 -0.390 0.614  1.58 -0.00404 -0.0660    -0.621   -0.237    1.50    0.970
##  4     2 -1.97 -0.390 0.614  1.58 -0.00404 -0.0660    -0.621   -0.237    1.50    0.970
##  5     3 -1.91 -0.340 0.639  1.62  0.137   -0.0262    -0.559   -0.182    1.56    1.00 
##  6     3 -1.91 -0.340 0.639  1.62  0.137   -0.0262    -0.559   -0.182    1.56    1.00 
##  7     4 -2.04 -0.378 0.546  1.53  0.0359  -0.0695    -0.778   -0.0637   1.60    0.839
##  8     4 -2.04 -0.378 0.546  1.53  0.0359  -0.0695    -0.778   -0.0637   1.60    0.839
##  9     5 -2.01 -0.404 0.590  1.60 -0.0658  -0.0578    -0.638   -0.187    1.72    0.879
## 10     5 -2.01 -0.404 0.590  1.60 -0.0658  -0.0578    -0.638   -0.187    1.72    0.879
## # … with 1,990 more rows
```
Thereafter, we're going to rename the columns coinciding with the betas to have a prefix of `coef` because we're going to `bind_cols()` the hypothetical data with it. We don't want column name clashes.


```r
simM1 %>% 
  # rename these to be clear they're simulated coefficients
  rename_at(vars("z_age", "z_famincr", "z_pid7na", "female", "collegeed", "z_ideo"),
            ~paste0("coef", .)) %>%
  bind_cols(., newdatOrd1) -> simM1

simM1
```

```
## # A tibble: 2,000 x 18
##      sim `1|2`  `2|3` `3|4` `4|5` coefz_age coeffemale coefcollegeed coefz_famincr coefz_ideo coefz_pid7na
##    <int> <dbl>  <dbl> <dbl> <dbl>     <dbl>      <dbl>         <dbl>         <dbl>      <dbl>        <dbl>
##  1     1 -1.94 -0.286 0.659  1.69   0.0662     -0.0212        -0.567       -0.213        1.61        0.977
##  2     1 -1.94 -0.286 0.659  1.69   0.0662     -0.0212        -0.567       -0.213        1.61        0.977
##  3     2 -1.97 -0.390 0.614  1.58  -0.00404    -0.0660        -0.621       -0.237        1.50        0.970
##  4     2 -1.97 -0.390 0.614  1.58  -0.00404    -0.0660        -0.621       -0.237        1.50        0.970
##  5     3 -1.91 -0.340 0.639  1.62   0.137      -0.0262        -0.559       -0.182        1.56        1.00 
##  6     3 -1.91 -0.340 0.639  1.62   0.137      -0.0262        -0.559       -0.182        1.56        1.00 
##  7     4 -2.04 -0.378 0.546  1.53   0.0359     -0.0695        -0.778       -0.0637       1.60        0.839
##  8     4 -2.04 -0.378 0.546  1.53   0.0359     -0.0695        -0.778       -0.0637       1.60        0.839
##  9     5 -2.01 -0.404 0.590  1.60  -0.0658     -0.0578        -0.638       -0.187        1.72        0.879
## 10     5 -2.01 -0.404 0.590  1.60  -0.0658     -0.0578        -0.638       -0.187        1.72        0.879
## # … with 1,990 more rows, and 7 more variables: z_ideo <dbl>, z_age <dbl>, z_famincr <dbl>,
## #   z_pid7na <dbl>, female <dbl>, collegeed <dbl>, state <chr>
```

This next part will involve manual calculations of the four component of the ordinal logistic regression in `M1`. First, to reduce redundancy in code, we'll calculate the estimated value from the design matrix of simulated regression coefficients. Observe how each value of `sim` appears twice. The coefficients of one of the given 1,000 simulations are identical, as are the hypothetical data except for the one difference (i.e. one person is very liberal and another is very conservative).


```r
simM1 %>%
  mutate(xb = (z_age*coefz_age) + (z_famincr*coefz_famincr) + (z_pid7na*coefz_pid7na) +
                              (female*coeffemale) + (collegeed*coefcollegeed) + (z_ideo*coefz_ideo)) %>%
  dplyr::select(sim, xb, everything()) -> simM1

simM1
```

```
## # A tibble: 2,000 x 19
##      sim    xb `1|2`  `2|3` `3|4` `4|5` coefz_age coeffemale coefcollegeed coefz_famincr coefz_ideo
##    <int> <dbl> <dbl>  <dbl> <dbl> <dbl>     <dbl>      <dbl>         <dbl>         <dbl>      <dbl>
##  1     1 -1.54 -1.94 -0.286 0.659  1.69   0.0662     -0.0212        -0.567       -0.213        1.61
##  2     1  1.43 -1.94 -0.286 0.659  1.69   0.0662     -0.0212        -0.567       -0.213        1.61
##  3     2 -1.48 -1.97 -0.390 0.614  1.58  -0.00404    -0.0660        -0.621       -0.237        1.50
##  4     2  1.28 -1.97 -0.390 0.614  1.58  -0.00404    -0.0660        -0.621       -0.237        1.50
##  5     3 -1.48 -1.91 -0.340 0.639  1.62   0.137      -0.0262        -0.559       -0.182        1.56
##  6     3  1.37 -1.91 -0.340 0.639  1.62   0.137      -0.0262        -0.559       -0.182        1.56
##  7     4 -1.58 -2.04 -0.378 0.546  1.53   0.0359     -0.0695        -0.778       -0.0637       1.60
##  8     4  1.36 -2.04 -0.378 0.546  1.53   0.0359     -0.0695        -0.778       -0.0637       1.60
##  9     5 -1.68 -2.01 -0.404 0.590  1.60  -0.0658     -0.0578        -0.638       -0.187        1.72
## 10     5  1.47 -2.01 -0.404 0.590  1.60  -0.0658     -0.0578        -0.638       -0.187        1.72
## # … with 1,990 more rows, and 8 more variables: coefz_pid7na <dbl>, z_ideo <dbl>, z_age <dbl>,
## #   z_famincr <dbl>, z_pid7na <dbl>, female <dbl>, collegeed <dbl>, state <chr>
```
…
# sump should be 1
simM1 %>%
  dplyr::select(sim, z_ideo, p1:p5, sump)
```

```
## # A tibble: 2,000 x 8
##      sim z_ideo     p1    p2    p3     p4     p5  sump
##    <int>  <dbl>  <dbl> <dbl> <dbl>  <dbl>  <dbl> <dbl>
##  1     1 -0.958 0.400  0.378 0.122 0.0617 0.0381     1
##  2     1  0.879 0.0332 0.120 0.164 0.248  0.435      1
##  3     2 -0.958 0.380  0.369 0.142 0.0648 0.0449     1
##  4     2  0.879 0.0374 0.121 0.181 0.235  0.425      1
##  5     3 -0.958 0.394  0.364 0.135 0.0641 0.0428     1
##  6     3  0.879 0.0360 0.117 0.172 0.238  0.438      1
##  7     4 -0.958 0.386  0.382 0.125 0.0640 0.0429     1
##  8     4  0.879 0.0323 0.117 0.158 0.235  0.458      1
##  9     5 -0.958 0.420  0.363 0.124 0.0574 0.0360     1
## 10     5  0.879 0.0300 0.103 0.160 0.240  0.466      1
## # … with 1,990 more rows
```
…
