…
```r

bootCrime %>% 
    mutate(lm = map(strap, ~lm(violent ~ poverty + single + metro + white + highschool, 
                     data = .)),
           tidy = map(lm, broom::tidy)) -> bootCrime
```

If you were to call the `bootCrime` object at this stage into the R console, you're going to get a tibble that looks kind of complex and daunting. It is, by the way, but we're going to make some sense of it going forward.


```r
bootCrime
#> # A tibble: 1,000 x 4
#>    strap      .id   lm     tidy            
#>    <list>     <chr> <list> <list>          
#>  1 <resample> 0001  <lm>   <tibble [6 × 5]>
#>  2 <resample> 0002  <lm>   <tibble [6 × 5]>
#>  3 <resample> 0003  <lm>   <tibble [6 × 5]>
#>  4 <resample> 0004  <lm>   <tibble [6 × 5]>
#>  5 <resample> 0005  <lm>   <tibble [6 × 5]>
#>  6 <resample> 0006  <lm>   <tibble [6 × 5]>
#>  7 <resample> 0007  <lm>   <tibble [6 × 5]>
#>  8 <resample> 0008  <lm>   <tibble [6 × 5]>
#>  9 <resample> 0009  <lm>   <tibble [6 × 5]>
#> 10 <resample> 0010  <lm>   <tibble [6 × 5]>
#> # … with 990 more rows
```
…
```r

bootCrime %>%
  pull(tidy) %>%
  map2_df(., # map to return a data frame
          seq(1, 1000), # make sure to get this seq right. We did this 1000 times.
          ~mutate(.x, resample = .y)) -> tidybootCrime
```

If you're curious, this basically just ganked all the "tidied" output of our 1,000 regressions and binded them as rows to each other, with helpful indices in the `resample` column. Observe:


```r
tidybootCrime
#> # A tibble: 6,000 x 6
#>    term        estimate std.error statistic      p.value resample
#>    <chr>          <dbl>     <dbl>     <dbl>        <dbl>    <int>
#>  1 (Intercept) -1150.      660.      -1.74  0.0886              1
#>  2 poverty        28.7      10.5      2.75  0.00861             1
#>  3 single         71.1      22.3      3.19  0.00260             1
#>  4 metro           8.61      1.28     6.73  0.0000000258        1
#>  5 white          -1.72      2.15    -0.803 0.426               1
#>  6 highschool      1.46      8.11     0.179 0.858               1
#>  7 (Intercept) -1175.      845.      -1.39  0.171               2
#>  8 poverty        51.0      12.6      4.06  0.000193            2
#>  9 single         11.9      28.5      0.418 0.678               2
#> 10 metro           7.92      1.28     6.21  0.000000154         2
#> # … with 5,990 more rows
```
…
