…
```r
library(tidyverse)     # for most things
library(peacesciencer) # for dyad-year and alliance data
library(tictoc)        # for timing stuff
library(foreach)       # for some parallel magic
library(stevemisc)     # for graph formatting
```

Measures of dyadic foreign policy similarity typically come in two flavors: one uses UN voting data, which are obviously limited to observations after World War II. The other uses the Correlates of War alliance data, which is not as current (most recent year is 2012) but has coverage to 1816. We're going to use the latter. This is in `{peacesciencer}` as `cow_alliance`.


```r
cow_alliance
#> # A tibble: 120,784 × 7
#>    ccode1 ccode2  year cow_defense cow_neutral cow_nonagg cow_entente
#>     <dbl>  <dbl> <dbl>       <dbl>       <dbl>      <dbl>       <dbl>
#>  1      2     20  1949           1           0          1           1
#>  2      2     20  1950           1           0          1           1
#>  3      2     20  1951           1           0          1           1
#>  4      2     20  1952           1           0          1           1
#>  5      2     20  1953           1           0          1           1
#>  6      2     20  1954           1           0          1           1
#>  7      2     20  1955           1           0          1           1
#>  8      2     20  1956           1           0          1           1
#>  9      2     20  1957           1           0          1           1
#> 10      2     20  1958           1           0          1           1
#> # … with 120,774 more rows
```
…
```r
cow_alliance %>%
  # Create a "commitment" variable
  mutate(commitment = case_when(
    cow_defense == 1 ~ 3,
    cow_defense == 0 & (cow_neutral == 1 | cow_nonagg == 1) ~ 2,
    cow_defense == 0 & cow_neutral == 0 & cow_nonagg == 0 & cow_entente == 1 ~ 1)) %>%
  select(ccode1, ccode2, year, commitment) -> Alliances

Alliances
#> # A tibble: 120,784 × 4
#>    ccode1 ccode2  year commitment
#>     <dbl>  <dbl> <dbl>      <dbl>
#>  1      2     20  1949          3
#>  2      2     20  1950          3
#>  3      2     20  1951          3
#>  4      2     20  1952          3
#>  5      2     20  1953          3
#>  6      2     20  1954          3
#>  7      2     20  1955          3
#>  8      2     20  1956          3
#>  9      2     20  1957          3
#> 10      2     20  1958          3
#> # … with 120,774 more rows
```

Next, we'll create a full data set of directed dyad-years from 1816 to 2012 using `create_dyadyears()` in `{peacesciencer}`.


```r
DDY <- create_dyadyears(subset_years = c(1816:2012))
DDY
#> # A tibble: 1,760,970 × 3
#>    ccode1 ccode2  year
#>     <dbl>  <dbl> <int>
#>  1      2     20  1920
#>  2      2     20  1921
#>  3      2     20  1922
#>  4      2     20  1923
#>  5      2     20  1924
#>  6      2     20  1925
#>  7      2     20  1926
#>  8      2     20  1927
#>  9      2     20  1928
#> 10      2     20  1929
#> # … with 1,760,960 more rows
```
…
This returned a list of data frames, for each year, of directed dyad-year Tau-bs. All that's left now is to bind them together into one data frame and remove those same-state dyads that we otherwise needed for the calculation. What emerges is a full directed dyad-year calculation of Tau-b correlation coefficients based on alliance commitments from 1816 to 2012.


```r
Data %>%
  bind_rows(.) %>%
  select(ccode1, ccode2, year, taub) %>%
  filter(ccode1 != ccode2) %>%
  arrange(ccode1, year, ccode2)-> Data

Data
#> # A tibble: 1,761,030 × 4
#>    ccode1 ccode2  year    taub
#>     <dbl> <chr>  <int>   <dbl>
#>  1      2 200     1816 -0.124 
#>  2      2 210     1816 -0.0658
#>  3      2 220     1816 -0.0455
#>  4      2 225     1816 -0.0455
#>  5      2 230     1816 -0.0658
#>  6      2 235     1816 -0.0658
#>  7      2 245     1816 -0.156 
#>  8      2 255     1816 -0.187 
#>  9      2 267     1816 -0.156 
#> 10      2 269     1816 -0.156 
#> # … with 1,761,020 more rows
```
…
