…
```r
pwt9.1 %>% as_tibble() %>%
  select(isocode, year,  delta, xr) -> PWT
```

Here's the tibble for `pwt_sample`.


```r
pwt_sample
```

```
## # A tibble: 1,428 x 7
##    country   isocode  year   pop    hc  rgdpna labsh
##    <chr>     <chr>   <dbl> <dbl> <dbl>   <dbl> <dbl>
##  1 Australia AUS      1950  8.39  2.67 119510. 0.680
##  2 Australia AUS      1951  8.63  2.67 122550. 0.680
##  3 Australia AUS      1952  8.82  2.68 117534. 0.680
##  4 Australia AUS      1953  8.99  2.69 130285. 0.680
##  5 Australia AUS      1954  9.19  2.70 140700. 0.680
##  6 Australia AUS      1955  9.41  2.70 146250. 0.680
##  7 Australia AUS      1956  9.64  2.71 146586. 0.680
##  8 Australia AUS      1957  9.85  2.72 149796. 0.680
##  9 Australia AUS      1958 10.1   2.73 159957. 0.680
## 10 Australia AUS      1959 10.3   2.74 169756. 0.680
## # … with 1,418 more rows
```

And here's the tibble for `PWT`.


```r
PWT
```

```
## # A tibble: 12,376 x 4
##    isocode  year delta    xr
##    <fct>   <dbl> <dbl> <dbl>
##  1 ABW      1950    NA    NA
##  2 ABW      1951    NA    NA
##  3 ABW      1952    NA    NA
##  4 ABW      1953    NA    NA
##  5 ABW      1954    NA    NA
##  6 ABW      1955    NA    NA
##  7 ABW      1956    NA    NA
##  8 ABW      1957    NA    NA
##  9 ABW      1958    NA    NA
## 10 ABW      1959    NA    NA
## # … with 12,366 more rows
```
…
## Mutating Joins {#mutatingjoins}

Mutating joins in `dplyr` add columns from one data frames to another based on matching rows on the shared columns. You can think of these matching rows/columns as "keys" or "join predicates." These joins are as follow.

### `inner_join()`

`inner_join()` includes all rows that appear in both the first data frame (`x`) and the second data frame (`y`). Assuming (going forward) that `PWT` will be the `x` and `pwt_sample` will be the `y`, we'll do something like this.


```r
inner_join(PWT, pwt_sample)
```

```
## # A tibble: 1,428 x 9
##    isocode  year  delta    xr country     pop    hc  rgdpna labsh
##    <chr>   <dbl>  <dbl> <dbl> <chr>     <dbl> <dbl>   <dbl> <dbl>
##  1 AUS      1950 0.0287 0.893 Australia  8.39  2.67 119510. 0.680
##  2 AUS      1951 0.0301 0.893 Australia  8.63  2.67 122550. 0.680
##  3 AUS      1952 0.0310 0.893 Australia  8.82  2.68 117534. 0.680
##  4 AUS      1953 0.0312 0.893 Australia  8.99  2.69 130285. 0.680
##  5 AUS      1954 0.0318 0.893 Australia  9.19  2.70 140700. 0.680
##  6 AUS      1955 0.0325 0.893 Australia  9.41  2.70 146250. 0.680
##  7 AUS      1956 0.0329 0.893 Australia  9.64  2.71 146586. 0.680
##  8 AUS      1957 0.0331 0.893 Australia  9.85  2.72 149796. 0.680
##  9 AUS      1958 0.0334 0.893 Australia 10.1   2.73 159957. 0.680
## 10 AUS      1959 0.0338 0.893 Australia 10.3   2.74 169756. 0.680
## # … with 1,418 more rows
```

In this case, `inner_join()` returned a data frame the dimension with the number of rows in `pwt_sample`. It has the effect of adding `delta` and `xr` to `pwt_sample`. `inner_join(PWT, pwt_sample)` is functionally equivalent to `inner_join(pwt_sample, PWT)`. The ordering of `x` and `y` will only affect the order in which the columns appear.

### `left_join()`

`left_join()` returns all rows from `x` (here: `PWT`) based on matching rows on shared columns in `y` (here: `pwt_sample`). Notice the number of rows equals the number of rows in `PWT`. The effect is basically adding the economic data from `pwt_sample` into `PWT`, if just for the 21 select rich countries included in `pwt_sample`.


```r
left_join(PWT, pwt_sample)
```

```
## # A tibble: 12,376 x 9
##    isocode  year delta    xr country   pop    hc rgdpna labsh
##    <chr>   <dbl> <dbl> <dbl> <chr>   <dbl> <dbl>  <dbl> <dbl>
##  1 ABW      1950    NA    NA <NA>       NA    NA     NA    NA
##  2 ABW      1951    NA    NA <NA>       NA    NA     NA    NA
##  3 ABW      1952    NA    NA <NA>       NA    NA     NA    NA
##  4 ABW      1953    NA    NA <NA>       NA    NA     NA    NA
##  5 ABW      1954    NA    NA <NA>       NA    NA     NA    NA
##  6 ABW      1955    NA    NA <NA>       NA    NA     NA    NA
##  7 ABW      1956    NA    NA <NA>       NA    NA     NA    NA
##  8 ABW      1957    NA    NA <NA>       NA    NA     NA    NA
##  9 ABW      1958    NA    NA <NA>       NA    NA     NA    NA
## 10 ABW      1959    NA    NA <NA>       NA    NA     NA    NA
## # … with 12,366 more rows
```

### `right_join()`

`right_join()` is the companion to `left_join()`, but returns all rows included in `y` based on matching rows on shared columns in `x` (here: `PWT`). The effect is basically adding the economic data from `PWT` into `pwt_sample`, if just for the 21 select rich countries included in `pwt_sample`.


```r
right_join(PWT, pwt_sample)
```

```
## # A tibble: 1,428 x 9
##    isocode  year  delta    xr country     pop    hc  rgdpna labsh
##    <chr>   <dbl>  <dbl> <dbl> <chr>     <dbl> <dbl>   <dbl> <dbl>
##  1 AUS      1950 0.0287 0.893 Australia  8.39  2.67 119510. 0.680
##  2 AUS      1951 0.0301 0.893 Australia  8.63  2.67 122550. 0.680
##  3 AUS      1952 0.0310 0.893 Australia  8.82  2.68 117534. 0.680
##  4 AUS      1953 0.0312 0.893 Australia  8.99  2.69 130285. 0.680
##  5 AUS      1954 0.0318 0.893 Australia  9.19  2.70 140700. 0.680
##  6 AUS      1955 0.0325 0.893 Australia  9.41  2.70 146250. 0.680
##  7 AUS      1956 0.0329 0.893 Australia  9.64  2.71 146586. 0.680
##  8 AUS      1957 0.0331 0.893 Australia  9.85  2.72 149796. 0.680
##  9 AUS      1958 0.0334 0.893 Australia 10.1   2.73 159957. 0.680
## 10 AUS      1959 0.0338 0.893 Australia 10.3   2.74 169756. 0.680
## # … with 1,418 more rows
```

### `full_join()`

`full_join()` includes all rows in `x` or `y`. In a case like this, `full_join()` is ambivalent on what is `x` and what is `y`. The choice of `x` and `y` will affect the order in which the data are presented back to the user, but not the underlying information


```r
full_join(PWT, pwt_sample)
```

```
## # A tibble: 12,376 x 9
##    isocode  year delta    xr country   pop    hc rgdpna labsh
##    <chr>   <dbl> <dbl> <dbl> <chr>   <dbl> <dbl>  <dbl> <dbl>
##  1 ABW      1950    NA    NA <NA>       NA    NA     NA    NA
##  2 ABW      1951    NA    NA <NA>       NA    NA     NA    NA
##  3 ABW      1952    NA    NA <NA>       NA    NA     NA    NA
##  4 ABW      1953    NA    NA <NA>       NA    NA     NA    NA
##  5 ABW      1954    NA    NA <NA>       NA    NA     NA    NA
##  6 ABW      1955    NA    NA <NA>       NA    NA     NA    NA
##  7 ABW      1956    NA    NA <NA>       NA    NA     NA    NA
##  8 ABW      1957    NA    NA <NA>       NA    NA     NA    NA
##  9 ABW      1958    NA    NA <NA>       NA    NA     NA    NA
## 10 ABW      1959    NA    NA <NA>       NA    NA     NA    NA
## # … with 12,366 more rows
```
…
## Filtering Joins {#filteringjoins}

Whereas mutating joins add information from one data frame to another, filtering joins select out (i.e. "filter") rows from one data frame based on the presence or absence of a match in another data frame. There are two kinds of filtering joins: `semi_join()` and `anti_join()`.

### `semi_join()`

`semi_join()` returns all rows from `x` with a match in `y`.


```r
semi_join(PWT, pwt_sample)
```

```
## # A tibble: 1,428 x 4
##    isocode  year  delta    xr
##    <fct>   <dbl>  <dbl> <dbl>
##  1 AUS      1950 0.0287 0.893
##  2 AUS      1951 0.0301 0.893
##  3 AUS      1952 0.0310 0.893
##  4 AUS      1953 0.0312 0.893
##  5 AUS      1954 0.0318 0.893
##  6 AUS      1955 0.0325 0.893
##  7 AUS      1956 0.0329 0.893
##  8 AUS      1957 0.0331 0.893
##  9 AUS      1958 0.0334 0.893
## 10 AUS      1959 0.0338 0.893
## # … with 1,418 more rows
```

Notice that `semi_join()` looked for the matching keys (`isocode` and `year`) and subset `PWT` based on that.


### `anti_join()`

`anti_join()` returns all rows from `x` with*out* a match in `y`.


```r
anti_join(PWT, pwt_sample)
```

```
## # A tibble: 10,948 x 4
##    isocode  year delta    xr
##    <fct>   <dbl> <dbl> <dbl>
##  1 ABW      1950    NA    NA
##  2 ABW      1951    NA    NA
##  3 ABW      1952    NA    NA
##  4 ABW      1953    NA    NA
##  5 ABW      1954    NA    NA
##  6 ABW      1955    NA    NA
##  7 ABW      1956    NA    NA
##  8 ABW      1957    NA    NA
##  9 ABW      1958    NA    NA
## 10 ABW      1959    NA    NA
## # … with 10,938 more rows
```
…
I close with the following advice for my student and the reader.

### Know and Match Your Keys Before Joining/Merging

First, I didn't mention that the `*_join()` functions in `dplyr` can allow the user to manually specify keys for occasions when there are matching keys, even if the keys have different column names. For example, what if the `isocode` column in `PWT` was named `iso3c`? We, as the researcher, would know that is the perfect country code match between both data frames, but R wouldn't know that because the columns don't have the same name. Here's what happens if we tried to left_join `pwt_sample` into `PWT` where the country ISO codes didn't have the same column name.


```r
PWT %>% 
  rename(iso3c = isocode) %>%
  left_join(., pwt_sample)
```

```
## # A tibble: 259,896 x 10
##    iso3c  year delta    xr country     isocode   pop    hc  rgdpna  labsh
##    <fct> <dbl> <dbl> <dbl> <chr>       <chr>   <dbl> <dbl>   <dbl>  <dbl>
##  1 ABW    1950    NA    NA Australia   AUS      8.39  2.67 119510.  0.680
##  2 ABW    1950    NA    NA Austria     AUT      6.98  2.55  47147.  0.637
##  3 ABW    1950    NA    NA Belgium     BEL      8.63  2.20  76035.  0.651
##  4 ABW    1950    NA    NA Canada      CAN     13.8   2.48 179072.  0.768
##  5 ABW    1950    NA    NA Switzerland CHE      4.62  2.94  99082.  0.660
##  6 ABW    1950    NA    NA Chile       CHL     NA    NA        NA  NA    
##  7 ABW    1950    NA    NA Germany     DEU     68.7   2.43 442402.  0.672
##  8 ABW    1950    NA    NA Denmark     DNK      4.27  2.84  51441.  0.645
##  9 ABW    1950    NA    NA Spain       ESP     28.1   1.87 123428.  0.640
## 10 ABW    1950    NA    NA Finland     FIN      4.01  2.12  27678.  0.669
## # … with 259,886 more rows
```

Yuck. The surest way to know you botched a merge in R is if the number of rows in the ensuing data frame increases (usually: explodes) beyond what you as the researcher know it should be.

However, in instances where two columns contain the same information/keys, but are named differently, you can use the `by` option to tell `dplyr` on what it should be matching. Observe:


```r
PWT %>%
  rename(iso3c = isocode,
         the_year = year) %>%
  left_join(., pwt_sample, by=c("iso3c"="isocode", "the_year"="year"))
```

```
## # A tibble: 12,376 x 9
##    iso3c the_year delta    xr country   pop    hc rgdpna labsh
##    <chr>    <dbl> <dbl> <dbl> <chr>   <dbl> <dbl>  <dbl> <dbl>
##  1 ABW       1950    NA    NA <NA>       NA    NA     NA    NA
##  2 ABW       1951    NA    NA <NA>       NA    NA     NA    NA
##  3 ABW       1952    NA    NA <NA>       NA    NA     NA    NA
##  4 ABW       1953    NA    NA <NA>       NA    NA     NA    NA
##  5 ABW       1954    NA    NA <NA>       NA    NA     NA    NA
##  6 ABW       1955    NA    NA <NA>       NA    NA     NA    NA
##  7 ABW       1956    NA    NA <NA>       NA    NA     NA    NA
##  8 ABW       1957    NA    NA <NA>       NA    NA     NA    NA
##  9 ABW       1958    NA    NA <NA>       NA    NA     NA    NA
## 10 ABW       1959    NA    NA <NA>       NA    NA     NA    NA
## # … with 12,366 more rows
```

You *could* do this, but I advise against it (except for when it's [a clever parlor trick like I show here](http://svmiller.com/blog/2019/01/create-country-year-dyad-year-from-country-data/)). My rationale is if you have to declare the matching keys because *one* of the identifying columns doesn't have an identical name, you have to declare *all* the matching keys even if those are identically named. For example, here's what would happen if it was just the ISO codes that didn't have the same name and we thought that's all we needed to declare in `left_join()`.


```r
# ISO codes have different column names, but year name is the same.
PWT %>%
  rename(iso3c = isocode) %>%
  left_join(., pwt_sample, by=c("iso3c"="isocode"))
```

```
## # A tibble: 108,052 x 10
##    iso3c year.x delta    xr country year.y   pop    hc rgdpna labsh
##    <chr>  <dbl> <dbl> <dbl> <chr>    <dbl> <dbl> <dbl>  <dbl> <dbl>
##  1 ABW     1950    NA    NA <NA>        NA    NA    NA     NA    NA
##  2 ABW     1951    NA    NA <NA>        NA    NA    NA     NA    NA
##  3 ABW     1952    NA    NA <NA>        NA    NA    NA     NA    NA
##  4 ABW     1953    NA    NA <NA>        NA    NA    NA     NA    NA
##  5 ABW     1954    NA    NA <NA>        NA    NA    NA     NA    NA
##  6 ABW     1955    NA    NA <NA>        NA    NA    NA     NA    NA
##  7 ABW     1956    NA    NA <NA>        NA    NA    NA     NA    NA
##  8 ABW     1957    NA    NA <NA>        NA    NA    NA     NA    NA
##  9 ABW     1958    NA    NA <NA>        NA    NA    NA     NA    NA
## 10 ABW     1959    NA    NA <NA>        NA    NA    NA     NA    NA
## # … with 108,042 more rows
```
…
