…
I do want the student/reader to notice one thing I'm doing here. Namely, I have an underlying code and a country name alongside it as well. *Don't* use the country name for classification purposes, but *do* use it for debugging purposes. A reader may get fluent in CoW codes or ISO codes, but, in the event of a matching issue, sometimes it's good to see the full country name.

### Create a State-Year Panel of CoW States {#createcow}

This comes pre-processed in my `peacesciencer` package. `create_stateyears()` defaults to returning CoW state system members for all available years from 1816 to the most recently concluded calendar year.


```r
create_stateyears()
```

```
## # A tibble: 16,731 x 3
##    ccode statenme                  year
##    <dbl> <chr>                    <int>
##  1     2 United States of America  1816
##  2     2 United States of America  1817
##  3     2 United States of America  1818
##  4     2 United States of America  1819
##  5     2 United States of America  1820
##  6     2 United States of America  1821
##  7     2 United States of America  1822
##  8     2 United States of America  1823
##  9     2 United States of America  1824
## 10     2 United States of America  1825
## # … with 16,721 more rows
```

### Create a State-Year Panel of Gleditsch-Ward states {#creategw}

`create_stateyears()` can do the same for Gleditsch-Ward states, but requires the user to specify they want states from the Gleditsch-Ward system.


```r
create_stateyears(system="gw")
```

```
## # A tibble: 18,289 x 3
##    gwcode statename                 year
##     <dbl> <chr>                    <int>
##  1      2 United States of America  1816
##  2      2 United States of America  1817
##  3      2 United States of America  1818
##  4      2 United States of America  1819
##  5      2 United States of America  1820
##  6      2 United States of America  1821
##  7      2 United States of America  1822
##  8      2 United States of America  1823
##  9      2 United States of America  1824
## 10      2 United States of America  1825
## # … with 18,279 more rows
```
…
ISO codes are ubiquitous in economic data. I do have some misgivings about using `countrycode` to create a panel of countries, even for the ISO codes. Recall my concern that ISO codes are not very transparent about when (or even if) a code changes at particular point in time. No matter, the `ISOcodes` package has this information

Recall my earlier plea, though: pick one system as a "master" system, even among ISO codes. I'm partial to the three-character ISO codes so I'll use that here.


```r
ISO_3166_1 %>% as_tibble() %>%
  # Alpha_2 = iso2c, if you wanted it.
  # I want the three-character one.
  select(Alpha_3, Name)
```

```
## # A tibble: 249 x 2
##    Alpha_3 Name                
##    <chr>   <chr>               
##  1 ABW     Aruba               
##  2 AFG     Afghanistan         
##  3 AGO     Angola              
##  4 AIA     Anguilla            
##  5 ALA     Åland Islands       
##  6 ALB     Albania             
##  7 AND     Andorra             
##  8 ARE     United Arab Emirates
##  9 ARG     Argentina           
## 10 ARM     Armenia             
## # … with 239 more rows
```
…
```r
ISO_3166_1 %>% as_tibble() %>%
  # Alpha_2 = iso2c, if you wanted it.
  # I want the three-character one.
  select(Alpha_3, Name) %>%
  mutate(styear = 2010,
         endyear = 2020) %>%
  rowwise() %>%
  mutate(year = list(seq(styear, endyear))) %>%
  unnest(year) %>%
  select(-styear, -endyear)
```

```
## # A tibble: 2,739 x 3
##    Alpha_3 Name   year
##    <chr>   <chr> <int>
##  1 ABW     Aruba  2010
##  2 ABW     Aruba  2011
##  3 ABW     Aruba  2012
##  4 ABW     Aruba  2013
##  5 ABW     Aruba  2014
##  6 ABW     Aruba  2015
##  7 ABW     Aruba  2016
##  8 ABW     Aruba  2017
##  9 ABW     Aruba  2018
## 10 ABW     Aruba  2019
## # … with 2,729 more rows
```

### Create a Panel of UN M49 Codes {#createunm49}

`ISOcodes` also has UN M49 codes as well (`UN_M.49_Countries`) , though this requires some light cleaning.


```r
UN_M.49_Countries %>% as_tibble() %>% 
  select(-ISO_Alpha_3) %>%
  mutate(Name = str_trim(Name, side="left"))
```

```
## # A tibble: 249 x 2
##    Code  Name               
##    <chr> <chr>              
##  1 004   Afghanistan        
##  2 248   Åland Islands      
##  3 008   Albania            
##  4 012   Algeria            
##  5 016   American Samoa     
##  6 020   Andorra            
##  7 024   Angola             
##  8 660   Anguilla           
##  9 010   Antarctica         
## 10 028   Antigua and Barbuda
## # … with 239 more rows
```
…
```
## Warning: Problem with `mutate()` input `ccode`.
## ℹ Some values were not matched unambiguously: ABW, AIA, ALA, ASM, ATA, ATF, BES, BLM, BMU, BVT, CCK, COK, CUW, CXR, CYM, ESH, FLK, FRO, GGY, GIB, GLP, GRL, GUF, GUM, HKG, HMD, IMN, IOT, JEY, MAC, MAF, MNP, MSR, MTQ, MYT, NCL, NFK, NIU, PCN, PRI, PSE, PYF, REU, SGS, SHN, SJM, SPM, SRB, SXM, TCA, TKL, UMI, VGB, VIR, WLF
## 
## ℹ Input `ccode` is `countrycode(Alpha_3, "iso3c", "cown")`.
```

```
## Warning in countrycode(Alpha_3, "iso3c", "cown"): Some values were not matched unambiguously: ABW, AIA, ALA, ASM, ATA, ATF, BES, BLM, BMU, BVT, CCK, COK, CUW, CXR, CYM, ESH, FLK, FRO, GGY, GIB, GLP, GRL, GUF, GUM, HKG, HMD, IMN, IOT, JEY, MAC, MAF, MNP, MSR, MTQ, MYT, NCL, NFK, NIU, PCN, PRI, PSE, PYF, REU, SGS, SHN, SJM, SPM, SRB, SXM, TCA, TKL, UMI, VGB, VIR, WLF
```

```
## # A tibble: 249 x 3
##    Alpha_3 Name                 ccode
##    <chr>   <chr>                <dbl>
##  1 ABW     Aruba                   NA
##  2 AFG     Afghanistan            700
##  3 AGO     Angola                 540
##  4 AIA     Anguilla                NA
##  5 ALA     Åland Islands           NA
##  6 ALB     Albania                339
##  7 AND     Andorra                232
##  8 ARE     United Arab Emirates   696
##  9 ARG     Argentina              160
## 10 ARM     Armenia                371
## # … with 239 more rows
```
…
