…
Run the `WDI()` function and you'll get output that looks like this.


```r
WDI() %>% as_tibble()
#> # A tibble: 16,104 x 4
#>    iso2c country    NY.GDP.PCAP.KD  year
#>    <chr> <chr>               <dbl> <int>
#>  1 1A    Arab World            NA   2020
#>  2 1A    Arab World          6429.  2019
#>  3 1A    Arab World          6456.  2018
#>  4 1A    Arab World          6446.  2017
#>  5 1A    Arab World          6518.  2016
#>  6 1A    Arab World          6424.  2015
#>  7 1A    Arab World          6353.  2014
#>  8 1A    Arab World          6331.  2013
#>  9 1A    Arab World          6266.  2012
#> 10 1A    Arab World          6009.  2011
#> # … with 16,094 more rows
```

This returns the country/spatial unit (with the two-character ISO code, recalling [a previous post on this matter](http://svmiller.com/blog/2021/01/a-tutorial-on-state-classification-systems/)), a name for the unit (`country`), the indicator(s) you wanted, and the year. Of note, you can specify `extra = TRUE` to get more identifying information about the country/spatial unit beyond the two-character ISO code and name. I recommend against this since it's just more output than you probably want. Further, the indicator you want is returned "as is." In other words, the column name is the exact code of the World Bank indicator. You'll probably want to rename this for convenience. 

## How I Recommend Using {WDI} {#myrecommendations}

`{WDI}` is a super simple application, but, if you're not careful, it can seem really daunting. I don't think that's any fault of the package; it just does a lot and has a lot to offer. Unless you know exactly what you want, it may seem difficult to get what you want (and get it quickly) from `{WDI}`.

Consider that`{WDI}` has a search function. What if you're just curious what data the World Bank has that the package can access? Related, what if you don't know for sure what data you want? You can use the `WDIsearch()` function to help you potentially find the data you want. However, I caution against using this for reasons that will be obvious soon. Let's use the example of GDP.


```r
WDIsearch("GDP") %>% as_tibble()
#> # A tibble: 539 x 2
#>    indicator            name                                                  
#>    <chr>                <chr>                                                 
#>  1 5.51.01.10.gdp       "Per capita GDP growth"                               
#>  2 6.0.GDP_current      "GDP (current $)"                                     
#>  3 6.0.GDP_growth       "GDP growth (annual %)"                               
#>  4 6.0.GDP_usd          "GDP (constant 2005 $)"                               
#>  5 6.0.GDPpc_constant   "GDP per capita, PPP (constant 2011 international $) "
#>  6 BG.GSR.NFSV.GD.ZS    "Trade in services (% of GDP)"                        
#>  7 BG.KAC.FNEI.GD.PP.ZS "Gross private capital flows (% of GDP, PPP)"         
#>  8 BG.KAC.FNEI.GD.ZS    "Gross private capital flows (% of GDP)"              
#>  9 BG.KLT.DINV.GD.PP.ZS "Gross foreign direct investment (% of GDP, PPP)"     
#> 10 BG.KLT.DINV.GD.ZS    "Gross foreign direct investment (% of GDP)"          
#> # … with 529 more rows
```
…
You can grab all available data here for this indicators with the following `WDI()` call.


```r
WDI(indicator = c("EG.ELC.ACCS.ZS", # access to electricity
                  "BN.CAB.XOKA.GD.ZS", # current account balance
                  "IC.BUS.DFRN.XQ", # ease of doing business
                  "FP.CPI.TOTL.ZG", # CPI
                  "FR.INR.LNDP"), # interest rate spread
    start = 1960, end = 2020) %>% as_tibble() -> Data

Data
#> # A tibble: 16,104 x 8
#>    iso2c country  year EG.ELC.ACCS.ZS BN.CAB.XOKA.GD.… IC.BUS.DFRN.XQ
#>    <chr> <chr>   <int>          <dbl>            <dbl>          <dbl>
#>  1 1A    Arab W…  1960             NA               NA             NA
#>  2 1A    Arab W…  1961             NA               NA             NA
#>  3 1A    Arab W…  1962             NA               NA             NA
#>  4 1A    Arab W…  1963             NA               NA             NA
#>  5 1A    Arab W…  1964             NA               NA             NA
#>  6 1A    Arab W…  1965             NA               NA             NA
#>  7 1A    Arab W…  1966             NA               NA             NA
#>  8 1A    Arab W…  1967             NA               NA             NA
#>  9 1A    Arab W…  1968             NA               NA             NA
#> 10 1A    Arab W…  1969             NA               NA             NA
#> # … with 16,094 more rows, and 2 more variables: FP.CPI.TOTL.ZG <dbl>,
#> #   FR.INR.LNDP <dbl>
```

You'll definitely want to rename those indicators to something more intuitive. Renaming by column index is perilous, so be careful that you know what column you're renaming.


```r
Data %>%
  rename(elecperpop = 4,
         cab = 5,
         edb = 6,
         cpi = 7,
         ratespread = 8) -> Data

Data
#> # A tibble: 16,104 x 8
#>    iso2c country     year elecperpop   cab   edb   cpi ratespread
#>    <chr> <chr>      <int>      <dbl> <dbl> <dbl> <dbl>      <dbl>
#>  1 1A    Arab World  1960         NA    NA    NA    NA         NA
#>  2 1A    Arab World  1961         NA    NA    NA    NA         NA
#>  3 1A    Arab World  1962         NA    NA    NA    NA         NA
#>  4 1A    Arab World  1963         NA    NA    NA    NA         NA
#>  5 1A    Arab World  1964         NA    NA    NA    NA         NA
#>  6 1A    Arab World  1965         NA    NA    NA    NA         NA
#>  7 1A    Arab World  1966         NA    NA    NA    NA         NA
#>  8 1A    Arab World  1967         NA    NA    NA    NA         NA
#>  9 1A    Arab World  1968         NA    NA    NA    NA         NA
#> 10 1A    Arab World  1969         NA    NA    NA    NA         NA
#> # … with 16,094 more rows
```
…
