…
### Neither the IV or DV is Log-Transformed {#linlin}

This is the simplest case and I don't want to belabor it too much because I'm assuming a rudimentary understanding of OLS regression. In this instance, the regression coefficient is communicating a basic takeaway: **a one-unit change in the number of residents (per thousand) under 18 years of age coincides with an estimated change of about 1.552 in the projected per capita public school expenditures for 1975.** This isn't too difficult to understand; it's the most ideal case. We can use basic model predictions to show just that.


```r
CP77 %>%
  data_grid(.model = M1,
            pop = seq(min(pop), max(pop), by=1)) %>%
  mutate(pred = predict(M1, .),
         diff = pred - lag(pred, 1)) -> predM1

predM1
#> # A tibble: 100 × 5
#>      pop urbanpop incpc  pred  diff
#>    <dbl>    <int> <int> <dbl> <dbl>
#>  1   287      661  4697  226. NA   
#>  2   288      661  4697  228.  1.55
#>  3   289      661  4697  229.  1.55
#>  4   290      661  4697  231.  1.55
#>  5   291      661  4697  232.  1.55
#>  6   292      661  4697  234.  1.55
#>  7   293      661  4697  235.  1.55
#>  8   294      661  4697  237.  1.55
#>  9   295      661  4697  238.  1.55
#> 10   296      661  4697  240.  1.55
#> # … with 90 more rows
```
…
