…
{% include image.html url="/images/Fika-Swedish-coffee-tradition.jpg" caption="Swedes love their coffee; fortunately for them, coffee as commodity is a lot cheaper than it was. " width=400 align="right" %}

I'm writing this out of necessity so that I can try to avoid the discomfort of a student presenting a time series in nominal terms in order to understand changes in price. It will also give me something to which I can point when a student emails me asking about how to adjust something for inflation or index it like they see typically presented with time series data. It won't answer what is a proper reference point for adjusting for inflation; it'll only illustrate how it's done.

## The Data

The primary data I'll be using for this post come from the recent release of [`{stevedata}`](http://svmiller.com/stevedata). [`commodity_prices`](http://svmiller.com/stevedata/reference/commodity_prices.html) is a monthly data set from Jan. 1960 to Dec. 2022 on prices for select commodities that interest me: oil, coffee, tea, and sugar. The data come by way of the World Bank's "pink sheet" and should be broadly useful for pedagogical instruction on a variety of fronts (like data gathering/pivoting, cointegration, differencing, autocorrelation, and many more). You can get a snapshot of the data here.


```r
commodity_prices
#> # A tibble: 756 × 11
#>    date       oil_brent oil_dubai coffee_arabica coffee_robustas tea_columbo
#>    <date>         <dbl>     <dbl>          <dbl>           <dbl>       <dbl>
#>  1 1960-01-01      1.63      1.63          0.941           0.697       0.930
#>  2 1960-02-01      1.63      1.63          0.947           0.689       0.930
#>  3 1960-03-01      1.63      1.63          0.928           0.689       0.930
#>  4 1960-04-01      1.63      1.63          0.930           0.685       0.930
#>  5 1960-05-01      1.63      1.63          0.92            0.691       0.930
#>  6 1960-06-01      1.63      1.63          0.912           0.697       0.930
#>  7 1960-07-01      1.63      1.63          0.916           0.691       0.930
#>  8 1960-08-01      1.63      1.63          0.929           0.699       0.930
#>  9 1960-09-01      1.63      1.63          0.923           0.703       0.930
#> 10 1960-10-01      1.63      1.63          0.924           0.707       0.930
#> # ℹ 746 more rows
#> # ℹ 5 more variables: tea_kolkata <dbl>, tea_mombasa <dbl>, sugar_eu <dbl>,
#> #   sugar_us <dbl>, sugar_world <dbl>
```
…
The decision about which adjustment to use may depend on the commodity and the comparison. The Bureau of Labor Statistics, which maintains these indices, also has more focused price indexes for things like food and recreation, and even different city/regional indices. The most common and all-encompassing, however, is the consumer price index for all urban consumers. This index [covers about 93% of the American population](https://www.investopedia.com/terms/c/consumerpriceindex.asp) and is kind of a "default" price index. You can [see it here](https://fred.stlouisfed.org/series/CPIAUCSL), on the Federal Reserve Bank of St. Louis' website for economic data (FRED). 

You can also use the wonderful `{fredr}` package to get these data through the FRED's API, though you'd want to read [how to set that up and get an API key](https://cran.r-project.org/web/packages/fredr/vignettes/fredr.html). You can get the base data with the basic command below, though code I suppress for presentation will create the summary graph you see here.


```r
CPI <- fredr(series_id = "CPIAUCSL", 
               observation_start = as.Date("1960-01-01")) %>%
  rename(cpiu = value) %>%
  filter(year(date) <= 2022)

CPI
#> # A tibble: 756 × 5
#>    date       series_id  cpiu realtime_start realtime_end
#>    <date>     <chr>     <dbl> <date>         <date>      
#>  1 1960-01-01 CPIAUCSL   29.4 2023-09-30     2023-09-30  
#>  2 1960-02-01 CPIAUCSL   29.4 2023-09-30     2023-09-30  
#>  3 1960-03-01 CPIAUCSL   29.4 2023-09-30     2023-09-30  
#>  4 1960-04-01 CPIAUCSL   29.5 2023-09-30     2023-09-30  
#>  5 1960-05-01 CPIAUCSL   29.6 2023-09-30     2023-09-30  
#>  6 1960-06-01 CPIAUCSL   29.6 2023-09-30     2023-09-30  
#>  7 1960-07-01 CPIAUCSL   29.6 2023-09-30     2023-09-30  
#>  8 1960-08-01 CPIAUCSL   29.6 2023-09-30     2023-09-30  
#>  9 1960-09-01 CPIAUCSL   29.6 2023-09-30     2023-09-30  
#> 10 1960-10-01 CPIAUCSL   29.8 2023-09-30     2023-09-30  
#> # ℹ 746 more rows
```
…
CPI %>%
  select(date, cpiu) %>%
  mutate(last = last(cpiu),
         first = first(cpiu),
         mean1990 = mean1990,
         bench_first = (cpiu/first)*100,
         bench_last = (cpiu/last)*100,
         bench_1990 = (cpiu/mean1990)*100) -> CPI

CPI
#> # A tibble: 756 × 8
#>    date        cpiu  last first mean1990 bench_first bench_last bench_1990
#>    <date>     <dbl> <dbl> <dbl>    <dbl>       <dbl>      <dbl>      <dbl>
#>  1 1960-01-01  29.4  299.  29.4     131.        100        9.82       22.5
#>  2 1960-02-01  29.4  299.  29.4     131.        100.       9.84       22.5
#>  3 1960-03-01  29.4  299.  29.4     131.        100.       9.84       22.5
#>  4 1960-04-01  29.5  299.  29.4     131.        101.       9.88       22.6
#>  5 1960-05-01  29.6  299.  29.4     131.        101.       9.89       22.6
#>  6 1960-06-01  29.6  299.  29.4     131.        101.       9.90       22.7
#>  7 1960-07-01  29.6  299.  29.4     131.        101.       9.88       22.6
#>  8 1960-08-01  29.6  299.  29.4     131.        101.       9.90       22.7
#>  9 1960-09-01  29.6  299.  29.4     131.        101.       9.90       22.7
#> 10 1960-10-01  29.8  299.  29.4     131.        101.       9.95       22.8
#> # ℹ 746 more rows
```

Cool. That was it; we got our benchmarks. Let's join them into our commodity prices data frame so that we can start adjusting things for inflation. Notice that the `left_join()` here is joining by exact date (which is practically a year-month). Make sure your consumer price index data and benchmarks correspond with the temporal unit in the data frame of interest.


```r
commodity_prices %>%
  left_join(., CPI %>% select(date, bench_first:bench_1990))  -> commodity_prices

commodity_prices
#> # A tibble: 756 × 14
#>    date       oil_brent oil_dubai coffee_arabica coffee_robustas tea_columbo
#>    <date>         <dbl>     <dbl>          <dbl>           <dbl>       <dbl>
#>  1 1960-01-01      1.63      1.63          0.941           0.697       0.930
#>  2 1960-02-01      1.63      1.63          0.947           0.689       0.930
#>  3 1960-03-01      1.63      1.63          0.928           0.689       0.930
#>  4 1960-04-01      1.63      1.63          0.930           0.685       0.930
#>  5 1960-05-01      1.63      1.63          0.92            0.691       0.930
#>  6 1960-06-01      1.63      1.63          0.912           0.697       0.930
#>  7 1960-07-01      1.63      1.63          0.916           0.691       0.930
#>  8 1960-08-01      1.63      1.63          0.929           0.699       0.930
#>  9 1960-09-01      1.63      1.63          0.923           0.703       0.930
#> 10 1960-10-01      1.63      1.63          0.924           0.707       0.930
#> # ℹ 746 more rows
#> # ℹ 8 more variables: tea_kolkata <dbl>, tea_mombasa <dbl>, sugar_eu <dbl>,
#> #   sugar_us <dbl>, sugar_world <dbl>, bench_first <dbl>, bench_last <dbl>,
#> #   bench_1990 <dbl>
```
…
Here is the nominal price of arabica and robustas coffee over the course of the data, expressed in $/kg averages given by the International Coffee Organization. If you're curious, arabica is generally what you drink but is more sensitive to pests and weather issues. Robustas is generally regarded as "not as flavorful" as arabica, but is more robust to pests and weather issues. It's also [what (I think?) the Vietnamese typically drink](https://nguyencoffeesupply.com/blogs/news/vietnamese-coffee-beans-arabica-robusta) and the coffee that you'd use for "coffee-scented" things (e.g. soaps, candles). Both are enjoyable to drink and I'm sure blended together in several cases for the coffee you'd buy to consume. Long story short, expect both prices to travel together, but expect the price of arabica to be generally higher and to be more sensitive to disruptions or other issues. Fancier code for making the graphs is suppressed for presentation.


```r
commodity_prices %>%
  select(date, coffee_arabica, coffee_robustas) %>%
  gather(var, val, -date)
#> # A tibble: 1,512 × 3
#>    date       var              val
#>    <date>     <chr>          <dbl>
#>  1 1960-01-01 coffee_arabica 0.941
#>  2 1960-02-01 coffee_arabica 0.947
#>  3 1960-03-01 coffee_arabica 0.928
#>  4 1960-04-01 coffee_arabica 0.930
#>  5 1960-05-01 coffee_arabica 0.92 
#>  6 1960-06-01 coffee_arabica 0.912
#>  7 1960-07-01 coffee_arabica 0.916
#>  8 1960-08-01 coffee_arabica 0.929
#>  9 1960-09-01 coffee_arabica 0.923
#> 10 1960-10-01 coffee_arabica 0.924
#> # ℹ 1,502 more rows
```
…
The data show obvious fluctuations. For example, that spike you see in the mid-1970s is a function of [the "big frost" in Brazil](https://www.nytimes.com/1975/08/04/archives/frost-in-brazil-sending-coffee-prices-up-frost-in-brazil-raises.html), which wiped out as much as half of all coffee harvests in the country (which is then(?) and certainly now the world's largest exporter of coffee). That effect seems to ripple into the late 1970s as well before prices stabilized. In nominal terms, coffee is way more expensive now than it was in Jan. 1960. The price of robustas has risen about 194% and the price of arabica has risen over 400% from what it was at the start of the series. However, that's nominal terms. What if we wanted to adjust these to inflation (let's say: Dec. 2022 dollars)? It'd be as simple as this.


```r
commodity_prices %>%
  select(date, coffee_arabica, coffee_robustas, bench_last) %>%
  mutate(real_arabica = (coffee_arabica/bench_last)*100,
         real_robustas = (coffee_robustas/bench_last)*100)
#> # A tibble: 756 × 6
#>    date       coffee_arabica coffee_robustas bench_last real_arabica
#>    <date>              <dbl>           <dbl>      <dbl>        <dbl>
#>  1 1960-01-01          0.941           0.697       9.82         9.58
#>  2 1960-02-01          0.947           0.689       9.84         9.63
#>  3 1960-03-01          0.928           0.689       9.84         9.44
#>  4 1960-04-01          0.930           0.685       9.88         9.42
#>  5 1960-05-01          0.92            0.691       9.89         9.30
#>  6 1960-06-01          0.912           0.697       9.90         9.21
#>  7 1960-07-01          0.916           0.691       9.88         9.27
#>  8 1960-08-01          0.929           0.699       9.90         9.38
#>  9 1960-09-01          0.923           0.703       9.90         9.32
#> 10 1960-10-01          0.924           0.707       9.95         9.28
#> # ℹ 746 more rows
#> # ℹ 1 more variable: real_robustas <dbl>
```
…
<!-- You can see what this looks like in the commodity prices data frame, benchmarking to Dec. 2022 dollars. -->
<!--

```r
commodity_prices %>%
  select(date, sugar_eu:sugar_world, bench_last) %>%
  mutate(real_sugar_eu = (sugar_eu/bench_last)*100,
         real_sugar_us = (sugar_us/bench_last)*100,
         real_sugar_world = (sugar_world/bench_last)*100)
#> # A tibble: 756 × 8
#>    date       sugar_eu sugar_us sugar_world bench_last real_sugar_eu
#>    <date>        <dbl>    <dbl>       <dbl>      <dbl>         <dbl>
#>  1 1960-01-01    0.122    0.117      0.0666       9.82          1.25
#>  2 1960-02-01    0.122    0.119      0.0679       9.84          1.24
#>  3 1960-03-01    0.122    0.121      0.0683       9.84          1.24
#>  4 1960-04-01    0.122    0.123      0.0681       9.88          1.24
#>  5 1960-05-01    0.122    0.121      0.0683       9.89          1.24
#>  6 1960-06-01    0.122    0.126      0.0666       9.90          1.24
#>  7 1960-07-01    0.122    0.132      0.0728       9.88          1.24
#>  8 1960-08-01    0.122    0.128      0.0741       9.90          1.24
#>  9 1960-09-01    0.122    0.132      0.0725       9.90          1.24
#> 10 1960-10-01    0.122    0.130      0.0538       9.95          1.23
#> # ℹ 746 more rows
#> # ℹ 2 more variables: real_sugar_us <dbl>, real_sugar_world <dbl>
```
…
Right now, $100/bbl is the kind of benchmark for Americans losing their minds about the price of crude. However, that's just a large nominal number we use now that has no real significance other than what we give it. The series opens at $1.63/bbl in Jan. 1960, but $100/bbl now should not be interpreted necessarily as a 6,000 percent increase from the Jan. 1960 price. You should adjust for inflation if you want a better gauge of just how much oil prices have changed over time.


```r
commodity_prices %>%
  mutate(real_brent = (oil_brent/bench_last)*100)
#> # A tibble: 756 × 15
#>    date       oil_brent oil_dubai coffee_arabica coffee_robustas tea_columbo
#>    <date>         <dbl>     <dbl>          <dbl>           <dbl>       <dbl>
#>  1 1960-01-01      1.63      1.63          0.941           0.697       0.930
#>  2 1960-02-01      1.63      1.63          0.947           0.689       0.930
#>  3 1960-03-01      1.63      1.63          0.928           0.689       0.930
#>  4 1960-04-01      1.63      1.63          0.930           0.685       0.930
#>  5 1960-05-01      1.63      1.63          0.92            0.691       0.930
#>  6 1960-06-01      1.63      1.63          0.912           0.697       0.930
#>  7 1960-07-01      1.63      1.63          0.916           0.691       0.930
#>  8 1960-08-01      1.63      1.63          0.929           0.699       0.930
#>  9 1960-09-01      1.63      1.63          0.923           0.703       0.930
#> 10 1960-10-01      1.63      1.63          0.924           0.707       0.930
#> # ℹ 746 more rows
#> # ℹ 9 more variables: tea_kolkata <dbl>, tea_mombasa <dbl>, sugar_eu <dbl>,
#> #   sugar_us <dbl>, sugar_world <dbl>, bench_first <dbl>, bench_last <dbl>,
#> #   bench_1990 <dbl>, real_brent <dbl>
```
…
However, one potential limitation of presenting prices in a time series like this is that it puts more effort on the reader to understand changes in relative price over time. Using Dec. 2022 dollars, I can see that the price of Brent was $16.3/bbl. Come Dec. 2022, that price is $80.9/bbl. You can say that's almost a 5-fold increase, or that the price has increased almost 400% from the start of the series in real terms. However, that makes a lay audience have to do some math that you might be able to (somewhat) do for them if you indexed the variables such that some point in time is a reference point. The logic here is basically the same to what we did creating our index for an inflation adjustment. Here, let's make the referent to be Jan. 1960, and the index prices communicate a change relative to the start of the series.


```r
commodity_prices %>%
  mutate(real_brent = (oil_brent/bench_last)*100,
         index_brent = (real_brent/first(real_brent))*100)
#> # A tibble: 756 × 16
#>    date       oil_brent oil_dubai coffee_arabica coffee_robustas tea_columbo
#>    <date>         <dbl>     <dbl>          <dbl>           <dbl>       <dbl>
#>  1 1960-01-01      1.63      1.63          0.941           0.697       0.930
#>  2 1960-02-01      1.63      1.63          0.947           0.689       0.930
#>  3 1960-03-01      1.63      1.63          0.928           0.689       0.930
#>  4 1960-04-01      1.63      1.63          0.930           0.685       0.930
#>  5 1960-05-01      1.63      1.63          0.92            0.691       0.930
#>  6 1960-06-01      1.63      1.63          0.912           0.697       0.930
#>  7 1960-07-01      1.63      1.63          0.916           0.691       0.930
#>  8 1960-08-01      1.63      1.63          0.929           0.699       0.930
#>  9 1960-09-01      1.63      1.63          0.923           0.703       0.930
#> 10 1960-10-01      1.63      1.63          0.924           0.707       0.930
#> # ℹ 746 more rows
#> # ℹ 10 more variables: tea_kolkata <dbl>, tea_mombasa <dbl>, sugar_eu <dbl>,
#> #   sugar_us <dbl>, sugar_world <dbl>, bench_first <dbl>, bench_last <dbl>,
#> #   bench_1990 <dbl>, real_brent <dbl>, index_brent <dbl>
```
…
