…
### Unpacking the Standardization of the Correlation Coefficient

I impart three things about the correlation coefficient (Pearson's *r*) on students who are absolutely new to this. The first is the aforementioned caveat that the correlation coefficient is symmetrical and is ultimately agnostic about any causal relationship generating the data it gets. Correlating *x* with *y* is equal to correlation *y* with *x* so even using the language of "association" can be tenuous if your use of "association" implies a direction (as one might do in a Lambda test). I alluded briefly to the second thing about the correlation coefficient that's important to internalize. It's hard-bound between -1 (perfect negative correlation) and +1 (perfect positive correlation), so any correlation coefficient the student may calculate out of those bounds is an error on their part.

The third thing is kind of interesting because it usually follows a sequence in which I've introduced students to [the standard normal distribution](http://svmiller.com/blog/2020/03/normal-distribution-central-limit-theorem-inference/). The correlation coefficient involves standardization of both *x* and *y*, creating *z*-scores from their product for all observations (summed and divided over the number of observations [minus 1]). *z*-scores communicate distance from the mean, also indicating that a *z*-score of exactly 0 *is* the mean (with absolute precision).


Let's use `r1sd_at()` in `{stevemisc}` to scale our democracy and per capita income variables (by 1 standard deviation) to create these *z*-scores and take a peek at the data to see what they imply.


```r
Data %>%
  r1sd_at(c("wbgdppc", "xm_qudsest"))
#> # A tibble: 48 × 7
#>    country     iso3c cat               wbgdppc xm_qudsest s_wbgdppc s_xm_qudsest
#>    <chr>       <chr> <chr>               <dbl>      <dbl>     <dbl>        <dbl>
#>  1 Australia   AUS   EE: Stable Democ…  13919.       1.87    1.73          1.32 
#>  2 Belgium     BEL   EE: Stable Democ…   9358.       1.85    0.651         1.30 
#>  3 Canada      CAN   EE: Stable Democ…  13413.       1.52    1.61          0.944
#>  4 Denmark     DNK   EE: Stable Democ…  11384.       1.58    1.13          1.01 
#>  5 Ireland     IRL   EE: Stable Democ…   6192.       1.20   -0.0948        0.600
#>  6 Luxembourg  LUX   EE: Stable Democ…  14589.       1.75    1.88          1.20 
#>  7 Netherlands NLD   EE: Stable Democ…   9633.       1.71    0.716         1.16 
#>  8 New Zealand NZL   EE: Stable Democ…  13602.       1.85    1.65          1.30 
#>  9 Norway      NOR   EE: Stable Democ…  10916.       1.71    1.02          1.15 
#> 10 Sweden      SWE   EE: Stable Democ…  11755.       1.79    1.22          1.24 
#> # ℹ 38 more rows
```
…
