…
Because we're talking about just 26 observations with only a select few variables, this becomes Table 1 in the article itself.

{% include image.html url="/images/mitchell1968-table1.png" caption="Mitchell's (1968) data set, as Table 1 in his article." width=946 align="center" %}

I have these data scraped from his Table 1 as [`Mitchell68` in `{stevedata}`](http://svmiller.com/stevedata/reference/Mitchell68.html).


``` r
Mitchell68
#> # A tibble: 26 × 9
#>       id province      gc   ool cvlhs    vl    fl     m    pd
#>    <dbl> <chr>      <dbl> <dbl> <dbl> <dbl> <dbl> <dbl> <dbl>
#>  1     1 An Giang      75    31  1.8   15.6  11.4     0   214
#>  2     2 An Xuyen      27    54  1.3   18.8  18      15    38
#>  3     3 Ba Xuyen      24    24  1.85  36.6  25.2    45   118
#>  4     4 Bien Hoa      31    36  1.75   4.9   2.3     0   116
#>  5     5 Binh Dinh      9    66  1.05   0     0      10    84
#>  6     6 Binh Duong    18    63  1.72   0.3   1.1    25   146
#>  7     7 Binh Thuan    32    54  1.79   2.2   2.9    85    57
#>  8     8 Dinh Tuong    31    28  1.3   12.6   4.7    60   423
#>  9     9 Khanh Hoa     43    39  1.62   0     0.3    20    46
#> 10    10 Kien Giang    22    37  1.85  29.7  26.3     0    66
#> # ℹ 16 more rows
```
…
Notice that the first province (Province 1, or An Giang) should be estimated above 60% and not just below it. Mitchell (1968) wants to estimate an expected value for Province 15 (Long Khan) to be around 55% when it should be around 38%. There should be much greater separation between the 22nd province (Quang Tri) and the 10th province (Ken Giang) than there is in Figure 1. The second province (An Xuyen) and and seventh province (Bin Thuan) should be right on top of each other as well. Yet, Mitchell's (1968) Figure 1 wants to imply a near 20 percentage point difference between the two expected observations. There are countless other discrepancies as well, which all extend to the other scatterplots Mitchell (1968) presents in his analysis. It is the case that we don't have access to Mitchell's (1968) residuals, and our residuals are having to do the work of the understudy. But, we've also blown past a few failures by this point to be here.

It's worth saying that you really shouldn't be doing it this way. In the benign interpretation that something got lost in transcription with the less automatic ways in which figures were constructed at that time (i.e. by hand), you could take even more of the guesswork and room for error out by having R calculate this for you. Let `data_grid()` in the `{modelr}` package guide you. 

`data_grid()` is going to take the data (`Mitchell68`) and an optional argument of the model (`.model = M1`). By default, it will return the median for all observations in the data frame that are included as independent variables in the model. It will, however, allow you to adjust one (or more) of these variables. Here, a la Figure 1, we're adjusting the owner-operated land variable (`ool`) to be a sequence from 0 to 80 by (default) increments of 1. This will create a new data frame (`newdat`) that is a hypothetical prediction grid, a la what Mitchell (1968, 433) says he's doing.


``` r
Mitchell68 %>%
  data_grid(.model = M1,
            ool = seq(0,80)) -> newdat

newdat
#> # A tibble: 81 × 6
#>      ool cvlhs    vl    fl     m    pd
#>    <int> <dbl> <dbl> <dbl> <dbl> <dbl>
#>  1     0  1.48   4.7  2.05  12.5    88
#>  2     1  1.48   4.7  2.05  12.5    88
#>  3     2  1.48   4.7  2.05  12.5    88
#>  4     3  1.48   4.7  2.05  12.5    88
#>  5     4  1.48   4.7  2.05  12.5    88
#>  6     5  1.48   4.7  2.05  12.5    88
#>  7     6  1.48   4.7  2.05  12.5    88
#>  8     7  1.48   4.7  2.05  12.5    88
#>  9     8  1.48   4.7  2.05  12.5    88
#> 10     9  1.48   4.7  2.05  12.5    88
#> # ℹ 71 more rows
```

Next, we're going to use the `predict()` function to create model predictions (`preds`) based on the model (`M1`) and the hypothetical prediction grid (`newdat`). Why do it by hand when `predict()` will do it for you? We'll optionally ask for a 90% confidence interval (`interval = "confidence", level = .9`) as an upper and lower bound of the predicted value of `y` (here: government control).


``` r
preds <- predict(M1, newdata = newdat, 
                 interval = "confidence",
                 level = .9) %>% as_tibble()

preds
#> # A tibble: 81 × 3
#>      fit   lwr   upr
#>    <dbl> <dbl> <dbl>
#>  1  35.2  20.5  49.9
#>  2  35.0  20.6  49.5
#>  3  34.8  20.7  49.0
#>  4  34.7  20.8  48.5
#>  5  34.5  20.9  48.1
#>  6  34.3  21.0  47.6
#>  7  34.1  21.0  47.1
#>  8  33.9  21.1  46.7
#>  9  33.7  21.2  46.2
#> 10  33.5  21.3  45.8
#> # ℹ 71 more rows
```
…
