…
I recently downloaded these data from `HowTheyVote.eu` and put them into [`{stevedata}`](http://svmiller.com/stevedata/) as [`eu_ua_fta24`](http://svmiller.com/stevedata/reference/eu_ua_fta24.html). You can see them here, in R.


``` r
eu_ua_fta24
#> # A tibble: 705 × 9
#>    member_id first_name last_name  position iso2c country group_code group_label
#>        <dbl> <chr>      <chr>      <chr>    <chr> <chr>   <chr>      <chr>      
#>  1    197490 Magdalena  ADAMOWICZ  For      PL    Poland  EPP        European P…
#>  2    189525 Asim       ADEMOV     For      BG    Bulgar… EPP        European P…
#>  3    124831 Isabella   ADINOLFI   Did Not… IT    Italy   EPP        European P…
#>  4    197826 Matteo     ADINOLFI   Did Not… IT    Italy   ID         Identity a…
#>  5    197403 Alex       AGIUS SAL… Did Not… MT    Malta   SD         Progressiv…
#>  6    198096 Mazaly     AGUILAR    For      ES    Spain   ECR        European C…
#>  7    125045 Clara      AGUILERA   For      ES    Spain   SD         Progressiv…
#>  8    197400 Abir       AL-SAHLANI For      SE    Sweden  RENEW      Renew Euro…
#>  9    204335 Alviina    ALAMETSÄ   For      FI    Finland GREEN_EFA  Greens/Eur…
#> 10    237224 João       ALBUQUERQ… For      PT    Portug… SD         Progressiv…
#> # ℹ 695 more rows
#> # ℹ 1 more variable: group_short_label <chr>
```
…
