…
That's one such reason why I have [the `country_isocodes` data set in `{stevedata}`](http://svmiller.com/stevedata/reference/country_isocodes.html) to allow for some convenient subsetting. Here's a simple summary of that data set.


``` r
country_isocodes
#> # A tibble: 249 × 4
#>    iso2c iso3c iso3n name                
#>    <chr> <chr> <chr> <chr>               
#>  1 AW    ABW   533   Aruba               
#>  2 AF    AFG   004   Afghanistan         
#>  3 AO    AGO   024   Angola              
#>  4 AI    AIA   660   Anguilla            
#>  5 AX    ALA   248   Åland Islands       
#>  6 AL    ALB   008   Albania             
#>  7 AD    AND   020   Andorra             
#>  8 AE    ARE   784   United Arab Emirates
#>  9 AR    ARG   032   Argentina           
#> 10 AM    ARM   051   Armenia             
#> # ℹ 239 more rows
```

The `country` argument in `WDI()` takes either two-character or three-character ISO codes and returns all observations included in what you asked. If you wanted just the United States, Canada, and Mexico, it would be something like `country = c("US", "MX", "CA")` or the three-character equivalent of `country = c("USA", "MEX", "CAN")`. In our simple example, however, it's anything in the `iso2c` column in the `country_isocodes` data. Be forewarned, that `WDI()` is verbose, and will alert you to anything it can't find in the World Bank data (e.g. the World Bank has no data for Åland Islands), though the warning message that is returned (and suppressed here) is just a warning and not an error, per se.

Run the above `WDI()` function and this is what will come back.[^slow]

[^slow]: If you snooped on the source code for this post, you'd see that I saved the output of this function to a data set and work with that for this post. It's great that this API exists, but accessing it can be a bit slow. With that in mind, it might be wise to consider this the kind of "raw data" you'd have for a project and keep it stored somewhere to process to "clean" data. See some posts of mine ([here](http://svmiller.com/blog/2022/09/steveproj-stevetemplates-targets-workflow-example/) and [here](http://svmiller.com/blog/2021/03/handle-academic-projects-steveproj-make/)) for what I call this "data-laundering" approach to project management.


``` r
rawData
#> # A tibble: 1,290 × 9
#>    country     iso2c iso3c  year  aepp    cab   edb    cpi   irs
#>    <chr>       <chr> <chr> <int> <dbl>  <dbl> <dbl>  <dbl> <dbl>
#>  1 Afghanistan AF    AFG    2014  89.5 -15.8   NA    4.67  NA   
#>  2 Afghanistan AF    AFG    2015  71.5 -21.9   39.3 -0.662 NA   
#>  3 Afghanistan AF    AFG    2016  97.7 -15.0   38.9  4.38  NA   
#>  4 Afghanistan AF    AFG    2017  97.7 -19.0   37.1  4.98  NA   
#>  5 Afghanistan AF    AFG    2018  93.4 -21.6   44.2  0.626 NA   
#>  6 Afghanistan AF    AFG    2019  97.7 -20.2   44.1  2.30  NA   
#>  7 Albania     AL    ALB    2014 100   -10.8   NA    1.63   6.06
#>  8 Albania     AL    ALB    2015 100    -8.60  58.1  1.90   6.48
#>  9 Albania     AL    ALB    2016  99.9  -7.59  64.2  1.28   5.90
#> 10 Albania     AL    ALB    2017  99.9  -7.54  66.8  1.99   5.45
#> # ℹ 1,280 more rows
```
…
The data created above and assigned to an object called `rawData` is what we'd call a "panel" in the social sciences. "Panels" are individual observations observed over (effectively) the same period of time. There are a few options for converting such a panel to what we'd call a "cross-section" (i.e. observations all gathered at (around) the same time, with no temporal component). These range from "easiest" to "still easy (but with five more lines of code)".


### Easiest: Subset to a Single Year (e.g. Most Recent Year) {#easiest}

The easiest would be a simple subset of the panel to a single year of observation. In the data created above, this would be a simple matter of selecting the data to, say, 2019 (which would incidentally be the most recent year).


``` r
rawData %>% 
  filter(year == 2019) -> Option1

Option1
#> # A tibble: 215 × 9
#>    country             iso2c iso3c  year  aepp     cab   edb   cpi   irs
#>    <chr>               <chr> <chr> <int> <dbl>   <dbl> <dbl> <dbl> <dbl>
#>  1 Afghanistan         AF    AFG    2019  97.7 -20.2    44.1  2.30 NA   
#>  2 Albania             AL    ALB    2019 100    -7.91   67.7  1.41  5.78
#>  3 Algeria             DZ    DZA    2019  99.5  -8.76   48.6  1.95  6.25
#>  4 American Samoa      AS    ASM    2019  NA    NA      NA   NA    NA   
#>  5 Andorra             AD    AND    2019 100    18.0    NA   NA    NA   
#>  6 Angola              AO    AGO    2019  45.6   7.25   41.3 17.1  12.9 
#>  7 Antigua and Barbuda AG    ATG    2019 100    -6.51   60.3  1.43  7.03
#>  8 Argentina           AR    ARG    2019 100    -0.780  59.0 NA    20.0 
#>  9 Armenia             AM    ARM    2019 100    -7.06   74.5  1.44  3.66
#> 10 Aruba               AW    ABW    2019 100     2.50   NA    4.26  3.5 
#> # ℹ 205 more rows

Option1 %>%
  na.omit
#> # A tibble: 99 × 9
#>    country             iso2c iso3c  year  aepp    cab   edb   cpi   irs
#>    <chr>               <chr> <chr> <int> <dbl>  <dbl> <dbl> <dbl> <dbl>
#>  1 Albania             AL    ALB    2019 100   -7.91   67.7  1.41  5.78
#>  2 Algeria             DZ    DZA    2019  99.5 -8.76   48.6  1.95  6.25
#>  3 Angola              AO    AGO    2019  45.6  7.25   41.3 17.1  12.9 
#>  4 Antigua and Barbuda AG    ATG    2019 100   -6.51   60.3  1.43  7.03
#>  5 Armenia             AM    ARM    2019 100   -7.06   74.5  1.44  3.66
#>  6 Australia           AU    AUS    2019 100    0.350  81.2  1.61  3.54
#>  7 Azerbaijan          AZ    AZE    2019 100    8.70   78.5  2.61  7.59
#>  8 Bahamas, The        BS    BHS    2019 100   -2.65   59.9  2.49  3.66
#>  9 Bangladesh          BD    BGD    2019  92.2 -0.839  45.0  5.59  2.78
#> 10 Belarus             BY    BLR    2019 100   -1.93   74.3  5.60  2.52
#> # ℹ 89 more rows
```
…
New Zealand has missing data for the interest rate spread in 2019, but the panel is otherwise complete for the other observations. Taking a year lag allows us to keep New Zealand in our data.

I have a suite of functions---[my so-called `_at()` functions](http://svmiller.com/stevemisc/reference/at.html)---for doing single functions to multiple columns all in one fell swoop. `lag_at()`, in this case, creates lagged variables with a prefix of `l[o]_` where `o` corresponds with the order of the lag. The default here is 1, as we want just a single year lag. We can (and must make sure) to specify these are grouped data, so we're not lagging Albania's observation of a current account balance in 2014 based on Afghanistan's observation in 2019.

Let's observe what this does.


``` r
rawData %>% 
  lag_at(c("aepp", "cab", "cpi", "irs"),
        .by = iso2c)
#> # A tibble: 1,290 × 13
#>    country     iso2c iso3c  year  aepp    cab   edb    cpi   irs l1_aepp l1_cab
#>    <chr>       <chr> <chr> <int> <dbl>  <dbl> <dbl>  <dbl> <dbl>   <dbl>  <dbl>
#>  1 Afghanistan AF    AFG    2014  89.5 -15.8   NA    4.67  NA       NA    NA   
#>  2 Afghanistan AF    AFG    2015  71.5 -21.9   39.3 -0.662 NA       89.5 -15.8 
#>  3 Afghanistan AF    AFG    2016  97.7 -15.0   38.9  4.38  NA       71.5 -21.9 
#>  4 Afghanistan AF    AFG    2017  97.7 -19.0   37.1  4.98  NA       97.7 -15.0 
#>  5 Afghanistan AF    AFG    2018  93.4 -21.6   44.2  0.626 NA       97.7 -19.0 
#>  6 Afghanistan AF    AFG    2019  97.7 -20.2   44.1  2.30  NA       93.4 -21.6 
#>  7 Albania     AL    ALB    2014 100   -10.8   NA    1.63   6.06    NA    NA   
#>  8 Albania     AL    ALB    2015 100    -8.60  58.1  1.90   6.48   100   -10.8 
#>  9 Albania     AL    ALB    2016  99.9  -7.59  64.2  1.28   5.90   100    -8.60
#> 10 Albania     AL    ALB    2017  99.9  -7.54  66.8  1.99   5.45    99.9  -7.59
#> # ℹ 1,280 more rows
#> # ℹ 2 more variables: l1_cpi <dbl>, l1_irs <dbl>
```
…
Now that we see what it does, let's do our second option. Notice how easy this is, but it's just two more lines of code. The second extra line is optional (because it's using the `select()` column to do column management).



``` r
rawData %>% 
  lag_at(c("aepp", "cab", "cpi", "irs"),
        .by = iso2c) %>%
  select(country:year, edb, l1_aepp:l1_irs) %>%
  filter(year == 2019) -> Option2

Option2 %>%
  na.omit
#> # A tibble: 102 × 9
#>    country             iso2c iso3c  year   edb l1_aepp   l1_cab l1_cpi l1_irs
#>    <chr>               <chr> <chr> <int> <dbl>   <dbl>    <dbl>  <dbl>  <dbl>
#>  1 Albania             AL    ALB    2019  67.7   100    -6.70     2.03   5.18
#>  2 Algeria             DZ    DZA    2019  48.6    99.6  -8.69     4.27   6.25
#>  3 Angola              AO    AGO    2019  41.3    45.3   9.32    19.6   13.8 
#>  4 Antigua and Barbuda AG    ATG    2019  60.3   100   -14.0      1.21   7.32
#>  5 Armenia             AM    ARM    2019  74.5    99.9  -7.23     2.52   4.13
#>  6 Australia           AU    AUS    2019  81.2   100    -2.23     1.91   3.28
#>  7 Azerbaijan          AZ    AZE    2019  78.5   100    12.7      2.27   7.17
#>  8 Bahamas, The        BS    BHS    2019  59.9   100    -8.84     2.27   3.41
#>  9 Bangladesh          BD    BGD    2019  45.0    86.9  -2.21     5.54   2.99
#> 10 Belarus             BY    BLR    2019  74.3    99.3   0.0381   4.87   2.78
#> # ℹ 92 more rows
```
…
Option3 %>% na.omit
#> # A tibble: 123 × 9
#>    country             iso2c iso3c  year   edb l1_aepp l1_cab l1_cpi l1_irs
#>    <chr>               <chr> <chr> <int> <dbl>   <dbl>  <dbl>  <dbl>  <dbl>
#>  1 Albania             AL    ALB    2019  67.7   100    -6.70   2.03   5.18
#>  2 Algeria             DZ    DZA    2019  48.6    99.6  -8.69   4.27   6.25
#>  3 Angola              AO    AGO    2019  41.3    45.3   9.32  19.6   13.8 
#>  4 Antigua and Barbuda AG    ATG    2019  60.3   100   -14.0    1.21   7.32
#>  5 Armenia             AM    ARM    2019  74.5    99.9  -7.23   2.52   4.13
#>  6 Australia           AU    AUS    2019  81.2   100    -2.23   1.91   3.28
#>  7 Azerbaijan          AZ    AZE    2019  78.5   100    12.7    2.27   7.17
#>  8 Bahamas, The        BS    BHS    2019  59.9   100    -8.84   2.27   3.41
#>  9 Bahrain             BH    BHR    2019  76.0   100    -6.44   2.09   4.17
#> 10 Bangladesh          BD    BGD    2019  45.0    86.9  -2.21   5.54   2.99
#> # ℹ 113 more rows
```
…
