…
You have one of two options here. The first is to make a copy of the file, erase the `@` and save. That's certainly the easiest way to go about this and it's what I would advise students to do under these circumstances. You could also do something like this.


``` r
Data <- read_file("~/Koofr/data/benoit1996drmp/WEEDE.ASC") 
# ^ assuming your data are here, which they won't be. Adjust to taste.

substring(Data, 1, 150) # looks gross, but don't worry
#> [1] "@ ccode\tcname\tsuperpwr\tbutterw\tkende\tssm_is\tssm_es\tssis6074\tsses6074\tssis7580\tsses7580\tssal6080\tssal6074\tssal7580\tpoldem60\tpoldem65\tcivil73\tpolit73\tci"
Data <- gsub("@", "", Data) # find any instance of @ and replace with nothing at all.
Data <- read_table(Data) # read the table

Data # ta-da
#> # A tibble: 101 × 55
#>    ccode cname   superpwr butterw kende ssm_is ssm_es ssis6074 sses6074 ssis7580
#>    <dbl> <chr>      <dbl>   <dbl> <dbl>  <dbl>  <dbl>    <dbl>    <dbl>    <dbl>
#>  1     2 United…        1       7    14      1      0        1        0        0
#>  2    20 Canada         0       0     0      0      0        0        0        0
#>  3    40 Cuba           0       1     2      0      1        0        0        0
#>  4    41 Haiti          0       0     0      0      0        0        0        0
#>  5    42 Domini…        0       1     1      0      0        0        0        0
#>  6    70 Mexico         0       0     0      0      0        0        0        0
#>  7    90 Guatem…        0       0     1      0      0        0        0        0
#>  8    91 Hondur…        0       1     1      1      0        1        0        0
#>  9    92 El_Sal…        0       1     1      1      0        1        0        0
#> 10    93 Nicara…        0       0     0      0      0        0        0        0
#> # ℹ 91 more rows
#> # ℹ 45 more variables: sses7580 <dbl>, ssal6080 <dbl>, ssal6074 <dbl>,
#> #   ssal7580 <dbl>, poldem60 <chr>, poldem65 <chr>, civil73 <dbl>,
#> #   polit73 <dbl>, civil79 <chr>, polit79 <chr>, fh73 <dbl>, fh75_80 <dbl>,
#> #   dembin <dbl>, area <dbl>, defexd <chr>, defexdpc <chr>, encon <dbl>,
#> #   enconpc <dbl>, gnppc <chr>, gdppc <chr>, impexppc <chr>, impexp <chr>,
#> #   ecintdep <chr>, tvpc <chr>, szmil <chr>, szmilpc <chr>, popltn <dbl>, …
```
…
I can do something similar for the two measures of democracy that serve as his independent variables. Benoit (1996) helpfully tells you the political democracy measure benchmarks to 1965. My eyes see two columns as potential candidates for this variable: `poldem60` and `poldem65`. Given the information available, it seems like `poldem65` is the obvious candidate for what he says is "POLDEM 1965" in his analysis. Following this logic, I can again discern what would be the Freedom House measure from 1973. It should be `fh1973`, signaling *F*reedom *H*ouse's measure of democracy in `1973`. Here would be a reduced version of the data.


``` r
Data %>% 
  select(ccode:cname, butterw, ssal6080, poldem65, fh73)
#> # A tibble: 101 × 6
#>    ccode cname              butterw ssal6080 poldem65  fh73
#>    <dbl> <chr>                <dbl>    <dbl> <chr>    <dbl>
#>  1     2 United_States            7        1 92.4        14
#>  2    20 Canada                   0        0 99.5        14
#>  3    40 Cuba                     1        1 5.2          2
#>  4    41 Haiti                    0        0 20.7         3
#>  5    42 Dominican_Republic       1        0 38.8        11
#>  6    70 Mexico                   0        0 74.5         8
#>  7    90 Guatemala                0        0 39.5        11
#>  8    91 Honduras                 1        1 50           6
#>  9    92 El_Salvador              1        1 72.1        11
#> 10    93 Nicaragua                0        0 55.4         9
#> # ℹ 91 more rows
```
…
``` r
Data %>%
  select(ccode:cname, butterw, ssal6080, poldem65, fh73) %>%
  filter(poldem65 == ".") # Burma...
#> # A tibble: 1 × 6
#>   ccode cname butterw ssal6080 poldem65  fh73
#>   <dbl> <chr>   <dbl>    <dbl> <chr>    <dbl>
#> 1   775 Burma       0        0 .            4

Data %>% mutate(poldem65 = ifelse(poldem65 == ".", NA, poldem65),
                poldem65 = as.numeric(poldem65)) -> Data

Data %>% 
  select(ccode:cname, butterw, ssal6080, poldem65, fh73)
#> # A tibble: 101 × 6
#>    ccode cname              butterw ssal6080 poldem65  fh73
#>    <dbl> <chr>                <dbl>    <dbl>    <dbl> <dbl>
#>  1     2 United_States            7        1     92.4    14
#>  2    20 Canada                   0        0     99.5    14
#>  3    40 Cuba                     1        1      5.2     2
#>  4    41 Haiti                    0        0     20.7     3
#>  5    42 Dominican_Republic       1        0     38.8    11
#>  6    70 Mexico                   0        0     74.5     8
#>  7    90 Guatemala                0        0     39.5    11
#>  8    91 Honduras                 1        1     50       6
#>  9    92 El_Salvador              1        1     72.1    11
#> 10    93 Nicaragua                0        0     55.4     9
#> # ℹ 91 more rows
```
…
