…
The formula syntax may not be welcome for beginners, but the principle is pretty straightforward. A maximally autoregressive series ($$\rho$$ = 1) is, we would say, first-difference stationary on paper. When this is true, $$\gamma$$ (or $$\rho - 1$$) is 0 and the previous value should tell you absolutely nothing about the change in the current value from the previous value. Only $$e_t$$ remains to account for the difference in a series with total information retention.

Simulation by way of fake data shows how this works. After setting a reproducible seed, we'll create a simple series of 500 time units. Then, we'll generate random noise (`e`) and allow the outcome (`y`) to be the cumulative sum of this random noise. Whereas the cumulative sum maximally weights the previous observation, and by extension all those before it, this is the pure random walk. The first difference of this (`d_y`) returns us just the noise at the expense of the first observation in the series.


``` r
set.seed(8675309) # Jenny, I got your number...
tibble(t = 1:500, # 500 time units
       e = rnorm(500), # 500 random numbers
       y = cumsum(e),  # the random walk, then...
       # the first difference.
       d_y = y - lag(y)) -> fakeWalk

fakeWalk # let's see the data
#> # A tibble: 500 × 4
#>        t       e      y     d_y
#>    <int>   <dbl>  <dbl>   <dbl>
#>  1     1 -0.997  -0.997 NA     
#>  2     2  0.722  -0.275  0.722 
#>  3     3 -0.617  -0.892 -0.617 
#>  4     4  2.03    1.14   2.03  
#>  5     5  1.07    2.20   1.07  
#>  6     6  0.987   3.19   0.987 
#>  7     7  0.0275  3.22   0.0275
#>  8     8  0.673   3.89   0.673 
#>  9     9  0.572   4.46   0.572 
#> 10    10  0.904   5.37   0.904 
#> # ℹ 490 more rows
```
…
