…
On with the show...

## (Download) Load the Data, (Download) Read the Codebook {#data}

Students should [download the "standard" data set](https://www.gu.se/en/quality-government/qog-data/data-downloads/standard-dataset) made available by the Quality of Government Institute. This is an intro-level, one-month-long quantitative methods course and I cannot expect students to get into the weeds of cross-section time-series (panel) data. Download the "Cross-Section" version of the data in any format and save it to your hard drive.

Load it into R as follows. The file path obviously suggests that I make these available to my students (in Stata's `.dta` format). Students should adjust their file path to wherever the data are on their hard drive.


``` r
QoG <- haven::read_dta("~/Koofr/teaching/eh1903-ir3/2/data/qog/qog_std_cs_jan24_stata14.dta")
QoG
#> # A tibble: 194 × 1,652
#>    ccode cname     ccode_qog cname_qog ccodealp ccodecow version aii_acc aii_aio
#>    <dbl> <chr>         <dbl> <chr>     <chr>       <dbl> <chr>     <dbl>   <dbl>
#>  1     4 Afghanis…         4 Afghanis… AFG           700 QoGStd…   NA         NA
#>  2     8 Albania           8 Albania   ALB           339 QoGStd…   NA         NA
#>  3    12 Algeria          12 Algeria   DZA           615 QoGStd…    6.25       5
#>  4    20 Andorra          20 Andorra   AND           232 QoGStd…   NA         NA
#>  5    24 Angola           24 Angola    AGO           540 QoGStd…   18.8       10
#>  6    28 Antigua …        28 Antigua … ATG            58 QoGStd…   NA         NA
#>  7    31 Azerbaij…        31 Azerbaij… AZE           373 QoGStd…   NA         NA
#>  8    32 Argentina        32 Argentina ARG           160 QoGStd…   NA         NA
#>  9    36 Australia        36 Australia AUS           900 QoGStd…   NA         NA
#> 10    40 Austria          40 Austria   AUT           305 QoGStd…   NA         NA
#> # ℹ 184 more rows
#> # ℹ 1,643 more variables: aii_cilser <dbl>, aii_elec <dbl>, aii_pubm <dbl>,
#> #   aii_q01 <dbl>, aii_q02 <dbl>, aii_q03 <dbl>, aii_q04 <dbl>, aii_q05 <dbl>,
#> #   aii_q06 <dbl>, aii_q07 <dbl>, aii_q08 <dbl>, aii_q09 <dbl>, aii_q10 <dbl>,
#> #   aii_q11 <dbl>, aii_q12 <dbl>, aii_q13 <dbl>, aii_q14 <dbl>, aii_q17 <dbl>,
#> #   aii_q18 <dbl>, aii_q19 <dbl>, aii_q20 <dbl>, aii_q21 <dbl>, aii_q22 <dbl>,
#> #   aii_q23 <dbl>, aii_q24 <dbl>, aii_q25 <dbl>, aii_q26 <dbl>, …
```
…
``` r
QoG %>%
  select(cname, ccodealp,
         top_top1_income_share, wef_wr,
         wdi_expedu, fi_sog, bmr_dem,
         wdi_gdpcapcon2015, wdi_fdiout, wdi_gdpgr) %>%
  # go ahead an do this now...
  mutate(ln_gdppc = log(wdi_gdpcapcon2015)) %>%
  # A nuclear option to get complete cases. Use with caution.
  # Do so only if your data are fully inclusive of everything you want and
  # doesn't have anything you don't want.
  na.omit -> Data 

Data
#> # A tibble: 105 × 11
#>    cname         ccodealp top_top1_income_share wef_wr wdi_expedu fi_sog bmr_dem
#>    <chr>         <chr>                    <dbl>  <dbl>      <dbl>  <dbl>   <dbl>
#>  1 Albania       ALB                     0.0800     79       3.34   7.83       1
#>  2 Algeria       DZA                     0.0991     57       7.04   4.36       0
#>  3 Angola        AGO                     0.260      71       2.74   7.58       0
#>  4 Argentina     ARG                     0.138      73       5.28   6.09       1
#>  5 Australia     AUS                     0.0991     82       5.61   6.03       1
#>  6 Bahrain       BHR                     0.243      63       2.55   7.05       0
#>  7 Bangladesh    BGD                     0.162      61       1.77   8.33       0
#>  8 Belgium       BEL                     0.0831     89       6.81   4.32       1
#>  9 Bolivia (Plu… BOL                     0.198      72       8.44   5.95       1
#> 10 Botswana      BWA                     0.227      71       8.06   6.54       1
#> # ℹ 95 more rows
#> # ℹ 4 more variables: wdi_gdpcapcon2015 <dbl>, wdi_fdiout <dbl>,
#> #   wdi_gdpgr <dbl>, ln_gdppc <dbl>
```
…
