…
theme_set(theme_steve()) # default theme...
```

Let's get going.

## A Discussion of the Data

The data are [`rok_unga`](http://svmiller.com/stevedata/reference/rok_unga.html), which is forthcoming in [`{stevedata}`](http://svmiller.com/stevedata/). This is a simple data set for exploring the correlates of dyadic foreign policy similarity with South Korea from 1991 to 2020. There's an obvious panel component to this data set, though the analysis in question will focus on just a single year of 2015.

You can preview the data here:


``` r
rok_unga
#> # A tibble: 6,095 × 17
#>    ccode1 ccode2 iso3c  year agree v_agree  kappa   ip1   ip2   ipd gdppc1
#>  *  <dbl>  <dbl> <chr> <dbl> <dbl>   <dbl>  <dbl> <dbl> <dbl> <dbl>  <dbl>
#>  1    732      2 USA    1991 0.169   0.368 0.0592 0.506  3.01  2.50 10274.
#>  2    732      2 USA    1992 0.203   0.411 0.0871 0.551  3.04  2.49 10799.
#>  3    732      2 USA    1993 0.222   0.452 0.118  0.573  2.99  2.42 11425.
#>  4    732      2 USA    1994 0.358   0.523 0.174  0.568  3.06  2.49 12359.
#>  5    732      2 USA    1995 0.288   0.461 0.120  0.520  3.22  2.70 13411.
#>  6    732      2 USA    1996 0.355   0.520 0.179  0.613  3.21  2.60 14332.
#>  7    732      2 USA    1997 0.329   0.562 0.174  0.590  3.04  2.45 15074.
#>  8    732      2 USA    1998 0.328   0.588 0.176  0.733  2.84  2.11 14198.
#>  9    732      2 USA    1999 0.313   0.582 0.147  0.590  2.70  2.11 15714.
#> 10    732      2 USA    2000 0.312   0.541 0.122  0.639  2.68  2.04 16996.
#> # ℹ 6,085 more rows
#> # ℹ 6 more variables: gdppc2 <dbl>, v2x_polyarchy1 <dbl>, v2x_polyarchy2 <dbl>,
#> #   xm_euds1 <dbl>, xm_euds2 <dbl>, capdist <dbl>
```
…
If it can be simulated, it should be simulated. You could just as well ask for standard errors/confidence intervals by way of `predict()`, but where is the fun in that...

For presentation, you'll want to give yourself flexibility to communicate what the interaction says about the full relationship. To do that, we return to `data_grid()`, but this time ask for a sequence of 100 numbers for the `mindem` variable that corresponds with the range of its minimum to maximum. We will further toggle the `eap` variable to be 0 or 1. Thereafter, we'll use a new R package of mine---[`{simqi}`](http://svmiller.com/simqi/)---to simulate predicted values of the outcome variable across some number of simulations. `sim_qi()` in this package takes the model (`M2`) and an optional but heavily suggested "newdata" data frame (`newdat`). It then runs 1,000 simulations (the default, but can be changed by the `nsim` argument) about what the predicted values would be. You could optionally ask for the `newdata` frame back for easier post-processing (`return_newdata = TRUE`).



``` r
Data %>% 
  data_grid(.model = M2,
            eap = c(0,1),
            mindem = seq_range(mindem, 100))  -> newdat

newdat
#> # A tibble: 200 × 4
#>      eap mindem mingdppc capdist
#>    <dbl>  <dbl>    <dbl>   <dbl>
#>  1     0  -1.76     8.35   8872.
#>  2     0  -1.72     8.35   8872.
#>  3     0  -1.69     8.35   8872.
#>  4     0  -1.65     8.35   8872.
#>  5     0  -1.62     8.35   8872.
#>  6     0  -1.58     8.35   8872.
#>  7     0  -1.55     8.35   8872.
#>  8     0  -1.51     8.35   8872.
#>  9     0  -1.48     8.35   8872.
#> 10     0  -1.44     8.35   8872.
#> # ℹ 190 more rows

set.seed(8675309)

Sims <- sim_qi(M2, nsim = 100, newdata = newdat, return_newdata = TRUE)
Sims
#> # A tibble: 20,000 × 6
#>        y   sim   eap mindem mingdppc capdist
#>    <dbl> <int> <dbl>  <dbl>    <dbl>   <dbl>
#>  1  13.2     1     0  -1.76     8.35   8872.
#>  2  13.8     1     0  -1.72     8.35   8872.
#>  3  14.4     1     0  -1.69     8.35   8872.
#>  4  15.0     1     0  -1.65     8.35   8872.
#>  5  15.6     1     0  -1.62     8.35   8872.
#>  6  16.2     1     0  -1.58     8.35   8872.
#>  7  16.8     1     0  -1.55     8.35   8872.
#>  8  17.4     1     0  -1.51     8.35   8872.
#>  9  18.0     1     0  -1.48     8.35   8872.
#> 10  18.6     1     0  -1.44     8.35   8872.
#> # ℹ 19,990 more rows
```
…
